Variable                    Value               Units
Plate_temperature           400                 C
Air_temperature             -273.15             C
Surrounding_temperature     -273.15             C
Fin_length                  0.020               m
Heat_transfer_coefficient   50                  w/(m^2 K)
Emissivity                  0.7                 /
Thermal_conductivity        50                  w/(m K)
Base_thickness              0.001               m
Tip_thickness               0.001               m
Number_finite_volumes       10                  /
Residual                    1e-6                /